{
  "ORDER": "relevance",
  "USER_ORDER": "",
  "MAX_RESULTS": 19,
  "CONSOLE_WIDTH": 80,
  "MAX_RES": 2160,
  "PLAYER": "mpv",
  "PLAYERARGS": "",
  "ENCODER": 0,
  "NOTIFIER": "",
  "CHECKUPDATE": true,
  "SHOW_PLAYER_KEYS": true,
  "FULLSCREEN": true,
  "SHOW_STATUS": true,
  "ALWAYS_REPEAT": false,
  "COLUMNS": "date user",
  "DDIR": "/home/sean/downloads",
  "OVERWRITE": true,
  "SHOW_VIDEO": true,
  "SEARCH_MUSIC": false,
  "WINDOW_POS": "",
  "WINDOW_SIZE": "",
  "DOWNLOAD_COMMAND": "",
  "LOOKUP_METADATA": true,
  "LASTFM_USERNAME": "",
  "LASTFM_PASSWORD": "",
  "LASTFM_API_KEY": "",
  "LASTFM_API_SECRET": "",
  "AUDIO_FORMAT": "auto",
  "VIDEO_FORMAT": "mp4",
  "PAGES": 3,
  "AUTOPLAY": false,
  "SET_TITLE": true,
  "MPRIS": true,
  "SHOW_QRCODE": false,
  "HISTORY": true,
  "INPUT_HISTORY": true,
  "VLC_DUMMY_INTERFACE": false,
  "SHOW_SUBTITLES": true
}
